{
  "general": {
    "interval": 0.5,
    "log_level": 20
  },
  "camera": {
    "ip": "127.0.0.1",
    "port": 23,
    "credentials": {
      "username": "admin",
      "password": "password"
    }
  },
  "triggers": {
    "5":"camera preset recall 1",
    "7":"camera preset recall 1",
    "13":"camera preset recall 2",
    "21":"camera preset recall 2"    
  }
}
